<?xml version="1.0" encoding="UTF-8" standalone="no"?>
<!DOCTYPE svg PUBLIC "-//W3C//DTD SVG 1.1//EN"
 "http://www.w3.org/Graphics/SVG/1.1/DTD/svg11.dtd">
<!-- Generated by graphviz version 2.30.0 (20130412.1315)
 -->
<!-- Title: G Pages: 1 -->
<svg width="268pt" height="296pt"
 viewBox="0.00 0.00 268.00 296.00" xmlns="http://www.w3.org/2000/svg" xmlns:xlink="http://www.w3.org/1999/xlink">
<g id="graph0" class="graph" transform="scale(1 1) rotate(0) translate(4 292)">
<title>G</title>
<polygon fill="white" stroke="white" points="-4,5 -4,-292 265,-292 265,5 -4,5"/>
<!-- node1 -->
<g id="node1" class="node"><title>node1</title>
<polygon fill="aliceblue" stroke="black" points="202,-288 58,-288 58,-144 202,-144 202,-288"/>
<text text-anchor="start" x="66.5" y="-234.3" font-family="Times,serif" font-size="14.00"> </text>
<text text-anchor="start" x="70.5" y="-234.3" font-family="Times,serif" font-weight="bold" font-size="14.00" fill="#2554c7">main() @0x400948</text>
<text text-anchor="start" x="189.5" y="-234.3" font-family="Times,serif" font-size="14.00"> </text>
<text text-anchor="start" x="82" y="-220.3" font-family="Times,serif" font-size="14.00"> </text>
<text text-anchor="start" x="86" y="-220.3" font-family="Times,serif" font-style="italic" font-size="14.00">readB= 0KB # 0</text>
<text text-anchor="start" x="75" y="-206.3" font-family="Times,serif" font-size="14.00"> </text>
<text text-anchor="start" x="79" y="-206.3" font-family="Times,serif" font-style="italic" font-size="14.00">writtenB= 0KB # 0</text>
<text text-anchor="start" x="94" y="-192.3" font-family="Times,serif" font-size="14.00"> </text>
<text text-anchor="start" x="98" y="-192.3" font-family="Times,serif" font-style="italic" font-size="14.00">totCalls= 1</text>
<text text-anchor="start" x="162" y="-192.3" font-family="Times,serif" font-size="14.00"> </text>
</g>
<!-- node0 -->
<g id="node2" class="node"><title>node0</title>
<ellipse fill="aliceblue" stroke="black" cx="130" cy="-46" rx="130.223" ry="45.9239"/>
<text text-anchor="start" x="68" y="-64.3" font-family="Times,serif" font-size="14.00"> </text>
<text text-anchor="start" x="72" y="-64.3" font-family="Times,serif" font-weight="bold" font-size="14.00" fill="#2554c7">copy() @0x400820</text>
<text text-anchor="start" x="188" y="-64.3" font-family="Times,serif" font-size="14.00"> </text>
<text text-anchor="start" x="53" y="-50.3" font-family="Times,serif" font-size="14.00"> </text>
<text text-anchor="start" x="57" y="-50.3" font-family="Times,serif" font-style="italic" font-size="14.00">readB= 29039KB # 14521</text>
<text text-anchor="start" x="203" y="-50.3" font-family="Times,serif" font-size="14.00"> </text>
<text text-anchor="start" x="46" y="-36.3" font-family="Times,serif" font-size="14.00"> </text>
<text text-anchor="start" x="50" y="-36.3" font-family="Times,serif" font-style="italic" font-size="14.00">writtenB= 29039KB # 14521</text>
<text text-anchor="start" x="210" y="-36.3" font-family="Times,serif" font-size="14.00"> </text>
<text text-anchor="start" x="94" y="-22.3" font-family="Times,serif" font-size="14.00"> </text>
<text text-anchor="start" x="98" y="-22.3" font-family="Times,serif" font-style="italic" font-size="14.00">totCalls= 1</text>
<text text-anchor="start" x="162" y="-22.3" font-family="Times,serif" font-size="14.00"> </text>
</g>
<!-- node1&#45;&gt;node0 -->
<g id="edge1" class="edge"><title>node1&#45;&gt;node0</title>
<path fill="none" stroke="black" d="M130,-143.753C130,-129.922 130,-115.619 130,-102.39"/>
<polygon fill="black" stroke="black" points="133.5,-102.042 130,-92.0416 126.5,-102.042 133.5,-102.042"/>
<text text-anchor="middle" x="137.5" y="-114.3" font-family="Times,serif" font-size="14.00"> 1 </text>
</g>
</g>
</svg>
